EvanWB_Homework3
…
## The following object is masked from 'package:purrr':
## 
##     some

library(gvlma)

#1

#Reading in the KIllarney data
lakes <- read_csv("Killarney.csv", col_types = cols(Diversity = "d", Status = "f", Lake = "c"))
lakes

## # A tibble: 45 x 3
##    Lake            Status Diversity
##    <chr>           <fct>      <dbl>
##  1 Acid            Acidic      2   
##  2 Clearsilver     Acidic      4.65
##  3 David           Acidic      4.09
##  4 deLamorandiere  Acidic      1.11
##  5 Freeland        Acidic      2.06
##  6 Gail            Acidic      1.02
##  7 Killarney       Acidic      2.57
##  8 Little Mountain Acidic      1.03
##  9 Little Superior Acidic      1   
## 10 Lumsden         Acidic      1.75
## #  with 35 more rows
…
## Warning: Missing column names filled in: 'X1' [1]

## Parsed with column specification:
## cols(
##   X1 = col_double(),
##   Age = col_character(),
##   Alcohol = col_character(),
##   Tobacco = col_character(),
##   ncases = col_double(),
##   ncontrols = col_double()
## )

esoph

## # A tibble: 88 x 6
##       X1 Age   Alcohol   Tobacco  ncases ncontrols
##    <dbl> <chr> <chr>     <chr>     <dbl>     <dbl>
##  1     1 25-34 0-39g/day 0-9g/day      0        40
##  2     2 25-34 0-39g/day 10-19         0        10
##  3     3 25-34 0-39g/day 20-29         0         6
##  4     4 25-34 0-39g/day 30+           0         5
##  5     5 25-34 40-79     0-9g/day      0        27
##  6     6 25-34 40-79     10-19         0         7
##  7     7 25-34 40-79     20-29         0         4
##  8     8 25-34 40-79     30+           0         7
##  9     9 25-34 80-119    0-9g/day      0         2
## 10    10 25-34 80-119    10-19         0         1
## #  with 78 more rows
…
